## -------------------------------------------------------------------------------------------------
## Pivotal values in mA and tanb
## -------------------------------------------------------------------------------------------------
## [mA] (89.5-200.5:1 202.5-322.5:5 322.5-370.5:1 372.5-1002.5:5 1025.0-2025.0:50)
90.0
91.0
92.0
93.0
94.0
95.0
96.0
97.0
98.0
99.0
100.0
101.0
102.0
103.0
104.0
105.0
106.0
107.0
108.0
109.0
110.0
111.0
112.0
113.0
114.0
115.0
116.0
117.0
118.0
119.0
120.0
121.0
122.0
123.0
124.0
125.0
126.0
127.0
128.0
129.0
130.0
131.0
132.0
133.0
134.0
135.0
136.0
137.0
138.0
139.0
140.0
141.0
142.0
143.0
144.0
145.0
146.0
147.0
148.0
149.0
150.0
151.0
152.0
153.0
154.0
155.0
156.0
157.0
158.0
159.0
160.0
161.0
162.0
163.0
164.0
165.0
166.0
167.0
168.0
169.0
170.0
171.0
172.0
173.0
174.0
175.0
176.0
177.0
178.0
179.0
180.0
181.0
182.0
183.0
184.0
185.0
186.0
187.0
188.0
189.0
190.0
191.0
192.0
193.0
194.0
195.0
196.0
197.0
198.0
199.0
200.0
201.5
205.0
210.0
215.0
220.0
225.0
230.0
235.0
240.0
245.0
250.0
255.0
260.0
265.0
270.0
275.0
280.0
285.0
290.0
295.0
300.0
305.0
310.0
315.0
320.0
323.0
324.0
325.0
326.0
327.0
328.0
329.0
330.0
331.0
332.0
333.0
334.0
335.0
336.0
337.0
338.0
339.0
340.0
341.0
342.0
343.0
344.0
345.0
346.0
347.0
348.0
349.0
350.0
351.0
352.0
353.0
354.0
355.0
356.0
357.0
358.0
359.0
360.0
361.0
362.0
363.0
364.0
365.0
366.0
367.0
368.0
369.0
370.0
371.5
375.0
380.0
385.0
390.0
395.0
400.0
405.0
410.0
415.0
420.0
425.0
430.0
435.0
440.0
445.0
450.0
455.0
460.0
465.0
470.0
475.0
480.0
485.0
490.0
495.0
500.0
505.0
510.0
515.0
520.0
525.0
530.0
535.0
540.0
545.0
550.0
555.0
560.0
565.0
570.0
575.0
580.0
585.0
590.0
595.0
600.0
605.0
610.0
615.0
620.0
625.0
630.0
635.0
640.0
645.0
650.0
655.0
660.0
665.0
670.0
675.0
680.0
685.0
690.0
695.0
700.0
705.0
710.0
715.0
720.0
725.0
730.0
735.0
740.0
745.0
750.0
755.0
760.0
765.0
770.0
775.0
780.0
785.0
790.0
795.0
800.0
805.0
810.0
815.0
820.0
825.0
830.0
835.0
840.0
845.0
850.0
855.0
860.0
865.0
870.0
875.0
880.0
885.0
890.0
895.0
900.0
905.0
910.0
915.0
920.0
925.0
930.0
935.0
940.0
945.0
950.0
955.0
960.0
965.0
970.0
975.0
980.0
985.0
990.0
995.0
1000.0
1013.75
1050.0
1100.0
1150.0
1200.0
1250.0
1300.0
1350.0
1400.0
1450.0
1500.0
1550.0
1600.0
1650.0
1700.0
1750.0
1800.0
1850.0
1900.0
1950.0
2000.0
## [tanb] (0.45-1.05:0.1 1.5-60.5:1)
0.5
0.6
0.7
0.8
0.9
1.0
1.275
2.0
3.0
4.0
5.0
6.0
7.0
8.0
9.0
10.0
11.0
12.0
13.0
14.0
15.0
16.0
17.0
18.0
19.0
20.0
21.0
22.0
23.0
24.0
25.0
26.0
27.0
28.0
29.0
30.0
31.0
32.0
33.0
34.0
35.0
36.0
37.0
38.0
39.0
40.0
41.0
42.0
43.0
44.0
45.0
46.0
47.0
48.0
49.0
50.0
51.0
52.0
53.0
54.0
55.0
56.0
57.0
58.0
59.0
60.0
