70.00000 -0.02940 0.03210 -0.02420 0.01910
71.00000 -0.02930 0.03190 -0.02410 0.01910
72.00000 -0.02930 0.03170 -0.02410 0.01900
73.00000 -0.02920 0.03170 -0.02400 0.01900
74.00000 -0.02900 0.03190 -0.02400 0.01890
75.00000 -0.02900 0.03190 -0.02390 0.01890
76.00000 -0.02910 0.03180 -0.02390 0.01890
77.00000 -0.02910 0.03170 -0.02390 0.01880
78.00000 -0.02900 0.03160 -0.02380 0.01880
79.00000 -0.02900 0.03150 -0.02380 0.01880
80.00000 -0.02890 0.03150 -0.02370 0.01880
81.00000 -0.02890 0.03140 -0.02370 0.01870
82.00000 -0.02880 0.03140 -0.02370 0.01870
83.00000 -0.02870 0.03130 -0.02360 0.01870
84.00000 -0.02870 0.03130 -0.02360 0.01870
85.00000 -0.02860 0.03120 -0.02360 0.01870
86.00000 -0.02860 0.03110 -0.02350 0.01870
87.00000 -0.02850 0.03110 -0.02350 0.01870
88.00000 -0.02850 0.03100 -0.02350 0.01870
89.00000 -0.02840 0.03100 -0.02340 0.01870
90.00000 -0.02840 0.03090 -0.02340 0.01870
91.00000 -0.02830 0.03090 -0.02340 0.01870
92.00000 -0.02830 0.03080 -0.02330 0.01870
93.00000 -0.02820 0.03080 -0.02330 0.01860
94.00000 -0.02820 0.03070 -0.02330 0.01870
95.00000 -0.02810 0.03070 -0.02330 0.01870
96.00000 -0.02810 0.03060 -0.02320 0.01870
97.00000 -0.02800 0.03060 -0.02320 0.01870
98.00000 -0.02800 0.03060 -0.02320 0.01870
99.00000 -0.02790 0.03050 -0.02320 0.01870
100.00000 -0.02790 0.03050 -0.02320 0.01870
101.00000 -0.02780 0.03040 -0.02320 0.01870
102.00000 -0.02780 0.03040 -0.02320 0.01870
103.00000 -0.02780 0.03030 -0.02320 0.01870
104.00000 -0.02770 0.03030 -0.02320 0.01870
105.00000 -0.02760 0.03030 -0.02310 0.01870
106.00000 -0.02760 0.03020 -0.02310 0.01870
107.00000 -0.02750 0.03020 -0.02310 0.01870
108.00000 -0.02750 0.03010 -0.02310 0.01880
109.00000 -0.02750 0.03010 -0.02310 0.01880
110.00000 -0.02740 0.03000 -0.02310 0.01880
111.00000 -0.02740 0.03000 -0.02310 0.01880
112.00000 -0.02730 0.02990 -0.02310 0.01880
113.00000 -0.02730 0.02990 -0.02310 0.01880
114.00000 -0.02730 0.02980 -0.02310 0.01880
115.00000 -0.02720 0.02980 -0.02310 0.01890
116.00000 -0.02730 0.02980 -0.02310 0.01890
117.00000 -0.02720 0.02970 -0.02320 0.01890
118.00000 -0.02710 0.02970 -0.02320 0.01890
119.00000 -0.02700 0.02970 -0.02320 0.01890
120.00000 -0.02700 0.02970 -0.02320 0.01900
121.00000 -0.02700 0.02970 -0.02320 0.01900
122.00000 -0.02690 0.02960 -0.02320 0.01900
123.00000 -0.02690 0.02960 -0.02320 0.01900
124.00000 -0.02690 0.02960 -0.02320 0.01910
125.00000 -0.02680 0.02950 -0.02320 0.01910
126.00000 -0.02680 0.02950 -0.02320 0.01910
127.00000 -0.02680 0.02950 -0.02320 0.01910
128.00000 -0.02670 0.02950 -0.02320 0.01910
129.00000 -0.02670 0.02940 -0.02330 0.01920
130.00000 -0.02670 0.02940 -0.02330 0.01920
131.00000 -0.02660 0.02940 -0.02330 0.01920
132.00000 -0.02660 0.02940 -0.02330 0.01930
133.00000 -0.02660 0.02930 -0.02330 0.01930
134.00000 -0.02650 0.02930 -0.02330 0.01930
135.00000 -0.02650 0.02930 -0.02330 0.01930
136.00000 -0.02650 0.02930 -0.02340 0.01940
137.00000 -0.02640 0.02930 -0.02340 0.01940
138.00000 -0.02640 0.02920 -0.02340 0.01940
139.00000 -0.02640 0.02920 -0.02340 0.01950
140.00000 -0.02630 0.02920 -0.02340 0.01950
141.00000 -0.02630 0.02910 -0.02350 0.01950
142.00000 -0.02630 0.02910 -0.02350 0.01960
143.00000 -0.02630 0.02910 -0.02350 0.01960
144.00000 -0.02630 0.02910 -0.02350 0.01960
145.00000 -0.02620 0.02910 -0.02350 0.01970
146.00000 -0.02620 0.02900 -0.02360 0.01970
147.00000 -0.02620 0.02900 -0.02360 0.01980
148.00000 -0.02610 0.02900 -0.02360 0.01980
149.00000 -0.02610 0.02900 -0.02360 0.01980
150.00000 -0.02630 0.02890 -0.02370 0.01990
151.00000 -0.02600 0.02900 -0.02370 0.01990
152.00000 -0.02610 0.02910 -0.02370 0.01990
153.00000 -0.02610 0.02890 -0.02370 0.02000
154.00000 -0.02600 0.02890 -0.02380 0.02000
155.00000 -0.02600 0.02890 -0.02380 0.02010
156.00000 -0.02600 0.02890 -0.02380 0.02010
157.00000 -0.02600 0.02890 -0.02380 0.02020
158.00000 -0.02600 0.02880 -0.02390 0.02020
159.00000 -0.02600 0.02880 -0.02390 0.02030
160.00000 -0.02600 0.02880 -0.02390 0.02030
161.00000 -0.02590 0.02880 -0.02400 0.02030
162.00000 -0.02590 0.02880 -0.02390 0.02040
163.00000 -0.02590 0.02880 -0.02400 0.02050
164.00000 -0.02590 0.02880 -0.02400 0.02050
165.00000 -0.02590 0.02880 -0.02410 0.02050
166.00000 -0.02590 0.02880 -0.02410 0.02060
167.00000 -0.02590 0.02880 -0.02410 0.02060
168.00000 -0.02580 0.02880 -0.02420 0.02070
169.00000 -0.02580 0.02880 -0.02420 0.02070
170.00000 -0.02580 0.02880 -0.02420 0.02080
171.00000 -0.02580 0.02880 -0.02430 0.02080
172.00000 -0.02580 0.02880 -0.02430 0.02090
173.00000 -0.02580 0.02880 -0.02430 0.02100
174.00000 -0.02580 0.02880 -0.02440 0.02100
175.00000 -0.02580 0.02870 -0.02440 0.02110
176.00000 -0.02570 0.02870 -0.02440 0.02110
177.00000 -0.02570 0.02870 -0.02450 0.02120
178.00000 -0.02570 0.02870 -0.02450 0.02120
179.00000 -0.02570 0.02870 -0.02450 0.02130
180.00000 -0.02570 0.02870 -0.02460 0.02130
181.00000 -0.02560 0.02860 -0.02460 0.02140
182.00000 -0.02540 0.02830 -0.02460 0.02150
183.00000 -0.02520 0.02850 -0.02470 0.02150
184.00000 -0.02620 0.02940 -0.02470 0.02160
185.00000 -0.02610 0.02900 -0.02470 0.02160
186.00000 -0.02580 0.02880 -0.02480 0.02170
187.00000 -0.02570 0.02880 -0.02480 0.02170
188.00000 -0.02570 0.02880 -0.02480 0.02180
189.00000 -0.02570 0.02880 -0.02490 0.02180
190.00000 -0.02570 0.02880 -0.02490 0.02190
191.00000 -0.02570 0.02880 -0.02490 0.02200
192.00000 -0.02560 0.02880 -0.02500 0.02200
193.00000 -0.02560 0.02880 -0.02500 0.02210
194.00000 -0.02560 0.02880 -0.02500 0.02220
195.00000 -0.02560 0.02880 -0.02510 0.02220
196.00000 -0.02560 0.02880 -0.02510 0.02230
197.00000 -0.02560 0.02880 -0.02520 0.02230
198.00000 -0.02560 0.02880 -0.02520 0.02240
199.00000 -0.02560 0.02880 -0.02520 0.02250
200.00000 -0.02560 0.02880 -0.02530 0.02250
205.00000 -0.02560 0.02880 -0.02550 0.02280
210.00000 -0.02560 0.02880 -0.02570 0.02310
215.00000 -0.02560 0.02880 -0.02590 0.02340
220.00000 -0.02560 0.02890 -0.02630 0.02370
225.00000 -0.02560 0.02890 -0.02630 0.02440
230.00000 -0.02560 0.02900 -0.02660 0.02440
235.00000 -0.02560 0.02900 -0.02680 0.02470
240.00000 -0.02570 0.02910 -0.02700 0.02500
245.00000 -0.02570 0.02910 -0.02730 0.02530
250.00000 -0.02570 0.02920 -0.02760 0.02570
255.00000 -0.02580 0.02920 -0.02780 0.02600
260.00000 -0.02580 0.02930 -0.02810 0.02630
265.00000 -0.02590 0.02940 -0.02840 0.02660
270.00000 -0.02590 0.02950 -0.02860 0.02700
275.00000 -0.02600 0.02960 -0.02890 0.02730
280.00000 -0.02600 0.02960 -0.02920 0.02760
285.00000 -0.02610 0.02970 -0.02950 0.02800
290.00000 -0.02620 0.02980 -0.02970 0.02830
295.00000 -0.02630 0.02990 -0.03000 0.02860
300.00000 -0.02630 0.03000 -0.03030 0.02900
305.00000 -0.02640 0.03000 -0.03060 0.02930
310.00000 -0.02650 0.03010 -0.03090 0.02960
315.00000 -0.02650 0.03020 -0.03120 0.03000
320.00000 -0.02660 0.03030 -0.03150 0.03030
321.00000 -0.02660 0.03040 -0.03150 0.03040
322.00000 -0.02660 0.03040 -0.03160 0.03050
323.00000 -0.02670 0.03040 -0.03160 0.03050
324.00000 -0.02670 0.03040 -0.03170 0.03060
325.00000 -0.02670 0.03040 -0.03170 0.03070
326.00000 -0.02670 0.03040 -0.03180 0.03070
327.00000 -0.02670 0.03050 -0.03190 0.03080
328.00000 -0.02670 0.03050 -0.03190 0.03090
329.00000 -0.02680 0.03050 -0.03200 0.03090
330.00000 -0.02680 0.03050 -0.03200 0.03100
331.00000 -0.02680 0.03050 -0.03210 0.03110
332.00000 -0.02680 0.03050 -0.03210 0.03120
333.00000 -0.02680 0.03060 -0.03220 0.03120
334.00000 -0.02680 0.03060 -0.03230 0.03130
335.00000 -0.02680 0.03060 -0.03230 0.03140
336.00000 -0.02680 0.03060 -0.03240 0.03140
337.00000 -0.02690 0.03060 -0.03240 0.03150
338.00000 -0.02690 0.03060 -0.03250 0.03160
339.00000 -0.02690 0.03070 -0.03260 0.03160
340.00000 -0.02690 0.03070 -0.03260 0.03170
341.00000 -0.02690 0.03070 -0.03270 0.03180
342.00000 -0.02690 0.03070 -0.03270 0.03180
343.00000 -0.02690 0.03070 -0.03280 0.03190
344.00000 -0.02700 0.03070 -0.03290 0.03200
345.00000 -0.02700 0.03070 -0.03290 0.03200
346.00000 -0.02700 0.03070 -0.03300 0.03210
347.00000 -0.02680 0.03060 -0.03300 0.03220
348.00000 -0.02690 0.03070 -0.03310 0.03230
349.00000 -0.02690 0.03070 -0.03310 0.03230
350.00000 -0.02690 0.03070 -0.03320 0.03240
351.00000 -0.02690 0.03070 -0.03330 0.03250
352.00000 -0.02700 0.03080 -0.03330 0.03250
353.00000 -0.02700 0.03080 -0.03340 0.03260
354.00000 -0.02700 0.03080 -0.03340 0.03270
355.00000 -0.02700 0.03090 -0.03350 0.03270
356.00000 -0.02710 0.03090 -0.03360 0.03280
357.00000 -0.02710 0.03090 -0.03360 0.03290
358.00000 -0.02710 0.03090 -0.03370 0.03290
359.00000 -0.02720 0.03100 -0.03370 0.03300
360.00000 -0.02720 0.03100 -0.03380 0.03310
361.00000 -0.02720 0.03100 -0.03390 0.03320
362.00000 -0.02730 0.03110 -0.03390 0.03320
363.00000 -0.02730 0.03110 -0.03400 0.03330
364.00000 -0.02730 0.03120 -0.03400 0.03340
365.00000 -0.02730 0.03120 -0.03410 0.03340
366.00000 -0.02740 0.03120 -0.03410 0.03350
367.00000 -0.02740 0.03130 -0.03420 0.03360
368.00000 -0.02740 0.03130 -0.03430 0.03360
369.00000 -0.02750 0.03130 -0.03430 0.03370
370.00000 -0.02750 0.03140 -0.03440 0.03380
375.00000 -0.02760 0.03150 -0.03470 0.03410
380.00000 -0.02780 0.03170 -0.03500 0.03450
385.00000 -0.02790 0.03190 -0.03530 0.03480
390.00000 -0.02810 0.03200 -0.03560 0.03520
395.00000 -0.02820 0.03220 -0.03590 0.03550
400.00000 -0.02840 0.03240 -0.03620 0.03590
405.00000 -0.02850 0.03260 -0.03650 0.03620
410.00000 -0.02870 0.03270 -0.03680 0.03650
415.00000 -0.02890 0.03290 -0.03700 0.03690
420.00000 -0.02900 0.03310 -0.03730 0.03720
425.00000 -0.02920 0.03330 -0.03760 0.03760
430.00000 -0.02930 0.03340 -0.03790 0.03790
435.00000 -0.02950 0.03360 -0.03820 0.03830
440.00000 -0.02960 0.03380 -0.03850 0.03860
445.00000 -0.02980 0.03400 -0.03880 0.03890
450.00000 -0.02990 0.03410 -0.03910 0.03930
455.00000 -0.03010 0.03430 -0.03940 0.03960
460.00000 -0.03030 0.03450 -0.03970 0.04000
465.00000 -0.03040 0.03470 -0.04000 0.04030
470.00000 -0.03060 0.03480 -0.04030 0.04070
475.00000 -0.03080 0.03500 -0.04060 0.04100
480.00000 -0.03090 0.03520 -0.04090 0.04130
485.00000 -0.03110 0.03540 -0.04120 0.04170
490.00000 -0.03120 0.03560 -0.04150 0.04200
495.00000 -0.03140 0.03570 -0.04180 0.04240
500.00000 -0.03150 0.03590 -0.04210 0.04270
505.00000 -0.03170 0.03610 -0.04240 0.04300
510.00000 -0.03180 0.03620 -0.04270 0.04340
515.00000 -0.03200 0.03640 -0.04300 0.04370
520.00000 -0.03220 0.03660 -0.04330 0.04410
525.00000 -0.03240 0.03680 -0.04360 0.04440
530.00000 -0.03250 0.03700 -0.04390 0.04480
535.00000 -0.03270 0.03710 -0.04420 0.04510
540.00000 -0.03290 0.03730 -0.04450 0.04540
545.00000 -0.03310 0.03750 -0.04480 0.04580
550.00000 -0.03320 0.03770 -0.04510 0.04610
555.00000 -0.03340 0.03790 -0.04540 0.04650
560.00000 -0.03350 0.03810 -0.04570 0.04680
565.00000 -0.03370 0.03820 -0.04600 0.04710
570.00000 -0.03390 0.03840 -0.04630 0.04750
575.00000 -0.03400 0.03860 -0.04660 0.04780
580.00000 -0.03420 0.03880 -0.04690 0.04810
585.00000 -0.03440 0.03890 -0.04720 0.04850
590.00000 -0.03450 0.03910 -0.04750 0.04880
595.00000 -0.03470 0.03930 -0.04780 0.04920
600.00000 -0.03480 0.03950 -0.04810 0.04950
605.00000 -0.03500 0.03970 -0.04840 0.04980
610.00000 -0.03520 0.03980 -0.04860 0.05020
615.00000 -0.03530 0.04000 -0.04890 0.05050
620.00000 -0.03550 0.04020 -0.04920 0.05080
625.00000 -0.03570 0.04040 -0.04950 0.05120
630.00000 -0.03590 0.04060 -0.04980 0.05150
635.00000 -0.03600 0.04080 -0.05010 0.05190
640.00000 -0.03620 0.04090 -0.05040 0.05220
645.00000 -0.03640 0.04110 -0.05070 0.05250
650.00000 -0.03650 0.04130 -0.05100 0.05280
655.00000 -0.03670 0.04150 -0.05130 0.05320
660.00000 -0.03690 0.04170 -0.05160 0.05350
665.00000 -0.03710 0.04190 -0.05190 0.05380
670.00000 -0.03720 0.04210 -0.05220 0.05420
675.00000 -0.03740 0.04230 -0.05250 0.05450
680.00000 -0.03760 0.04240 -0.05270 0.05490
685.00000 -0.03770 0.04260 -0.05300 0.05520
690.00000 -0.03780 0.04280 -0.05330 0.05550
695.00000 -0.03800 0.04290 -0.05360 0.05580
700.00000 -0.03820 0.04310 -0.05390 0.05620
705.00000 -0.03830 0.04330 -0.05420 0.05650
710.00000 -0.03850 0.04350 -0.05450 0.05680
715.00000 -0.03860 0.04370 -0.05480 0.05720
720.00000 -0.03880 0.04390 -0.05510 0.05750
725.00000 -0.03900 0.04400 -0.05540 0.05780
730.00000 -0.03910 0.04420 -0.05570 0.05820
735.00000 -0.03930 0.04440 -0.05600 0.05850
740.00000 -0.03940 0.04460 -0.05630 0.05880
745.00000 -0.03960 0.04470 -0.05650 0.05910
750.00000 -0.03980 0.04490 -0.05680 0.05950
755.00000 -0.03990 0.04510 -0.05710 0.05980
760.00000 -0.04010 0.04530 -0.05740 0.06010
765.00000 -0.04020 0.04550 -0.05770 0.06040
770.00000 -0.04040 0.04560 -0.05800 0.06080
775.00000 -0.04060 0.04580 -0.05830 0.06110
780.00000 -0.04070 0.04600 -0.05860 0.06140
785.00000 -0.04090 0.04620 -0.05890 0.06170
790.00000 -0.04110 0.04640 -0.05920 0.06210
795.00000 -0.04120 0.04650 -0.05950 0.06240
800.00000 -0.04140 0.04670 -0.05980 0.06270
805.00000 -0.04160 0.04690 -0.06010 0.06310
810.00000 -0.04170 0.04710 -0.06030 0.06340
815.00000 -0.04190 0.04730 -0.06060 0.06370
820.00000 -0.04200 0.04740 -0.06090 0.06400
825.00000 -0.04220 0.04760 -0.06120 0.06430
830.00000 -0.04240 0.04780 -0.06150 0.06470
835.00000 -0.04250 0.04800 -0.06180 0.06500
840.00000 -0.04270 0.04810 -0.06210 0.06530
845.00000 -0.04290 0.04830 -0.06240 0.06560
850.00000 -0.04300 0.04850 -0.06270 0.06600
855.00000 -0.04320 0.04870 -0.06300 0.06630
860.00000 -0.04330 0.04890 -0.06330 0.06660
865.00000 -0.04350 0.04900 -0.06350 0.06700
870.00000 -0.04370 0.04920 -0.06380 0.06730
875.00000 -0.04380 0.04940 -0.06410 0.06760
880.00000 -0.04400 0.04960 -0.06440 0.06790
885.00000 -0.04420 0.04980 -0.06470 0.06820
890.00000 -0.04430 0.04990 -0.06500 0.06860
895.00000 -0.04450 0.05010 -0.06530 0.06890
900.00000 -0.04460 0.05030 -0.06560 0.06920
905.00000 -0.04480 0.05050 -0.06590 0.06960
910.00000 -0.04500 0.05060 -0.06620 0.06990
915.00000 -0.04510 0.05080 -0.06640 0.07020
920.00000 -0.04530 0.05100 -0.06670 0.07050
925.00000 -0.04550 0.05120 -0.06700 0.07080
930.00000 -0.04560 0.05130 -0.06730 0.07120
935.00000 -0.04580 0.05150 -0.06760 0.07150
940.00000 -0.04590 0.05170 -0.06790 0.07180
945.00000 -0.04610 0.05190 -0.06820 0.07210
950.00000 -0.04630 0.05210 -0.06850 0.07250
955.00000 -0.04640 0.05220 -0.06880 0.07280
960.00000 -0.04660 0.05240 -0.06910 0.07310
965.00000 -0.04680 0.05260 -0.06930 0.07340
970.00000 -0.04690 0.05280 -0.06960 0.07370
975.00000 -0.04710 0.05290 -0.06990 0.07410
980.00000 -0.04720 0.05310 -0.07020 0.07440
985.00000 -0.04740 0.05330 -0.07050 0.07470
990.00000 -0.04750 0.05350 -0.07080 0.07500
995.00000 -0.04770 0.05360 -0.07110 0.07540
1000.00000 -0.04790 0.05380 -0.07140 0.07570
1005.00000 -0.04830 0.05430 -0.07170 0.07600
1010.00000 -0.04840 0.05440 -0.07200 0.07630
1015.00000 -0.04860 0.05460 -0.07220 0.07670
1020.00000 -0.04880 0.05480 -0.07250 0.07700
1025.00000 -0.04890 0.05500 -0.07280 0.07730
1030.00000 -0.04910 0.05520 -0.07310 0.07760
1035.00000 -0.04930 0.05540 -0.07340 0.07800
1040.00000 -0.04940 0.05550 -0.07370 0.07830
1045.00000 -0.04960 0.05570 -0.07400 0.07860
1050.00000 -0.04980 0.05590 -0.07430 0.07890
1055.00000 -0.04990 0.05610 -0.07460 0.07930
1060.00000 -0.05010 0.05630 -0.07480 0.07960
1065.00000 -0.05030 0.05640 -0.07510 0.07990
1070.00000 -0.05040 0.05660 -0.07540 0.08020
1075.00000 -0.05060 0.05680 -0.07570 0.08060
1080.00000 -0.05080 0.05700 -0.07600 0.08090
1085.00000 -0.05090 0.05720 -0.07630 0.08120
1090.00000 -0.05110 0.05730 -0.07660 0.08150
1095.00000 -0.05130 0.05750 -0.07690 0.08180
1100.00000 -0.05140 0.05770 -0.07720 0.08220
1105.00000 -0.05160 0.05790 -0.07740 0.08250
1110.00000 -0.05170 0.05810 -0.07770 0.08280
1115.00000 -0.05190 0.05820 -0.07800 0.08310
1120.00000 -0.05210 0.05840 -0.07830 0.08350
1125.00000 -0.05230 0.05860 -0.07860 0.08380
1130.00000 -0.05240 0.05870 -0.07890 0.08410
1135.00000 -0.05260 0.05890 -0.07920 0.08440
1140.00000 -0.05280 0.05910 -0.07950 0.08470
1145.00000 -0.05290 0.05930 -0.07980 0.08510
1150.00000 -0.05310 0.05950 -0.08000 0.08540
1155.00000 -0.05330 0.05960 -0.08030 0.08570
1160.00000 -0.05340 0.05980 -0.08060 0.08600
1165.00000 -0.05360 0.06000 -0.08090 0.08640
1170.00000 -0.05380 0.06020 -0.08120 0.08670
1175.00000 -0.05390 0.06030 -0.08150 0.08700
1180.00000 -0.05410 0.06050 -0.08180 0.08740
1185.00000 -0.05430 0.06070 -0.08210 0.08770
1190.00000 -0.05440 0.06090 -0.08240 0.08800
1195.00000 -0.05460 0.06110 -0.08270 0.08830
1200.00000 -0.05480 0.06120 -0.08290 0.08860
1205.00000 -0.05490 0.06140 -0.08320 0.08900
1210.00000 -0.05510 0.06160 -0.08350 0.08930
1215.00000 -0.05530 0.06180 -0.08380 0.08960
1220.00000 -0.05540 0.06190 -0.08410 0.08990
1225.00000 -0.05560 0.06210 -0.08440 0.09030
1230.00000 -0.05580 0.06230 -0.08470 0.09060
1235.00000 -0.05590 0.06250 -0.08500 0.09090
1240.00000 -0.05610 0.06260 -0.08530 0.09120
1245.00000 -0.05630 0.06280 -0.08560 0.09160
1250.00000 -0.05640 0.06300 -0.08580 0.09190
1255.00000 -0.05660 0.06320 -0.08610 0.09220
1260.00000 -0.05680 0.06340 -0.08640 0.09250
1265.00000 -0.05690 0.06350 -0.08670 0.09280
1270.00000 -0.05710 0.06370 -0.08700 0.09320
1275.00000 -0.05730 0.06390 -0.08730 0.09350
1280.00000 -0.05740 0.06410 -0.08760 0.09380
1285.00000 -0.05760 0.06420 -0.08790 0.09420
1290.00000 -0.05780 0.06440 -0.08820 0.09450
1295.00000 -0.05790 0.06460 -0.08850 0.09480
1300.00000 -0.05810 0.06480 -0.08880 0.09510
1305.00000 -0.05830 0.06490 -0.08910 0.09550
1310.00000 -0.05840 0.06510 -0.08940 0.09580
1315.00000 -0.05860 0.06530 -0.08960 0.09610
1320.00000 -0.05880 0.06550 -0.08990 0.09640
1325.00000 -0.05890 0.06560 -0.09020 0.09680
1330.00000 -0.05910 0.06580 -0.09050 0.09710
1335.00000 -0.05930 0.06600 -0.09080 0.09740
1340.00000 -0.05940 0.06620 -0.09110 0.09780
1345.00000 -0.05960 0.06640 -0.09140 0.09810
1350.00000 -0.05980 0.06650 -0.09170 0.09840
1355.00000 -0.05990 0.06670 -0.09200 0.09870
1360.00000 -0.06010 0.06690 -0.09230 0.09910
1365.00000 -0.06030 0.06710 -0.09260 0.09940
1370.00000 -0.06050 0.06720 -0.09290 0.09970
1375.00000 -0.06060 0.06740 -0.09320 0.10000
1380.00000 -0.06080 0.06760 -0.09350 0.10000
1385.00000 -0.06100 0.06780 -0.09380 0.10100
1390.00000 -0.06110 0.06800 -0.09410 0.10100
1395.00000 -0.06130 0.06810 -0.09430 0.10100
1400.00000 -0.06150 0.06830 -0.09460 0.10200
1405.00000 -0.06160 0.06850 -0.09490 0.10200
1410.00000 -0.06180 0.06870 -0.09520 0.10200
1415.00000 -0.06200 0.06890 -0.09550 0.10300
1420.00000 -0.06220 0.06900 -0.09580 0.10300
1425.00000 -0.06230 0.06920 -0.09610 0.10300
1430.00000 -0.06250 0.06940 -0.09640 0.10400
1435.00000 -0.06260 0.06960 -0.09670 0.10400
1440.00000 -0.06280 0.06980 -0.09700 0.10400
1445.00000 -0.06300 0.07000 -0.09730 0.10500
1450.00000 -0.06310 0.07010 -0.09760 0.10500
1455.00000 -0.06330 0.07030 -0.09790 0.10500
1460.00000 -0.06350 0.07050 -0.09820 0.10600
1465.00000 -0.06360 0.07070 -0.09850 0.10600
1470.00000 -0.06380 0.07090 -0.09880 0.10600
1475.00000 -0.06400 0.07100 -0.09910 0.10700
1480.00000 -0.06410 0.07120 -0.09940 0.10700
1485.00000 -0.06430 0.07140 -0.09970 0.10700
1490.00000 -0.06450 0.07160 -0.10000 0.10800
1495.00000 -0.06460 0.07180 -0.10000 0.10800
1500.00000 -0.06480 0.07200 -0.10100 0.10800
1505.00000 -0.06500 0.07220 -0.10100 0.10900
1510.00000 -0.06510 0.07230 -0.10100 0.10900
1515.00000 -0.06530 0.07250 -0.10100 0.11000
1520.00000 -0.06550 0.07270 -0.10200 0.11000
1525.00000 -0.06560 0.07290 -0.10200 0.11000
1530.00000 -0.06580 0.07310 -0.10200 0.11100
1535.00000 -0.06600 0.07330 -0.10300 0.11100
1540.00000 -0.06610 0.07350 -0.10300 0.11100
1545.00000 -0.06630 0.07370 -0.10300 0.11200
1550.00000 -0.06650 0.07390 -0.10400 0.11200
1555.00000 -0.06670 0.07400 -0.10400 0.11200
1560.00000 -0.06680 0.07420 -0.10400 0.11300
1565.00000 -0.06700 0.07440 -0.10400 0.11300
1570.00000 -0.06720 0.07460 -0.10500 0.11300
1575.00000 -0.06730 0.07480 -0.10500 0.11400
1580.00000 -0.06750 0.07500 -0.10500 0.11400
1585.00000 -0.06770 0.07520 -0.10600 0.11400
1590.00000 -0.06780 0.07540 -0.10600 0.11500
1595.00000 -0.06800 0.07560 -0.10600 0.11500
1600.00000 -0.06820 0.07580 -0.10700 0.11500
1605.00000 -0.06830 0.07600 -0.10700 0.11600
1610.00000 -0.06850 0.07610 -0.10700 0.11600
1615.00000 -0.06870 0.07630 -0.10700 0.11700
1620.00000 -0.06880 0.07650 -0.10800 0.11700
1625.00000 -0.06900 0.07670 -0.10800 0.11700
1630.00000 -0.06920 0.07690 -0.10800 0.11800
1635.00000 -0.06940 0.07710 -0.10900 0.11800
1640.00000 -0.06950 0.07730 -0.10900 0.11800
1645.00000 -0.06970 0.07750 -0.10900 0.11900
1650.00000 -0.06990 0.07770 -0.11000 0.11900
1655.00000 -0.07000 0.07790 -0.11000 0.11900
1660.00000 -0.07020 0.07810 -0.11000 0.12000
1665.00000 -0.07040 0.07830 -0.11100 0.12000
1670.00000 -0.07050 0.07850 -0.11100 0.12000
1675.00000 -0.07070 0.07860 -0.11100 0.12100
1680.00000 -0.07090 0.07880 -0.11100 0.12100
1685.00000 -0.07110 0.07900 -0.11200 0.12200
1690.00000 -0.07120 0.07920 -0.11200 0.12200
1695.00000 -0.07140 0.07950 -0.11200 0.12200
1700.00000 -0.07160 0.07960 -0.11300 0.12300
1705.00000 -0.07170 0.07980 -0.11300 0.12300
1710.00000 -0.07190 0.08000 -0.11300 0.12300
1715.00000 -0.07210 0.08020 -0.11400 0.12400
1720.00000 -0.07230 0.08040 -0.11400 0.12400
1725.00000 -0.07250 0.08060 -0.11400 0.12400
1730.00000 -0.07260 0.08080 -0.11500 0.12500
1735.00000 -0.07280 0.08100 -0.11500 0.12500
1740.00000 -0.07290 0.08120 -0.11500 0.12600
1745.00000 -0.07310 0.08140 -0.11500 0.12600
1750.00000 -0.07330 0.08160 -0.11600 0.12600
1755.00000 -0.07350 0.08180 -0.11600 0.12700
1760.00000 -0.07360 0.08200 -0.11600 0.12700
1765.00000 -0.07380 0.08220 -0.11700 0.12700
1770.00000 -0.07400 0.08240 -0.11700 0.12800
1775.00000 -0.07410 0.08260 -0.11700 0.12800
1780.00000 -0.07430 0.08280 -0.11800 0.12800
1785.00000 -0.07450 0.08300 -0.11800 0.12900
1790.00000 -0.07470 0.08320 -0.11800 0.12900
1795.00000 -0.07490 0.08340 -0.11900 0.13000
1800.00000 -0.07500 0.08360 -0.11900 0.13000
1805.00000 -0.07520 0.08380 -0.11900 0.13000
1810.00000 -0.07540 0.08400 -0.11900 0.13100
1815.00000 -0.07560 0.08420 -0.12000 0.13100
1820.00000 -0.07570 0.08440 -0.12000 0.13100
1825.00000 -0.07590 0.08460 -0.12000 0.13200
1830.00000 -0.07610 0.08490 -0.12100 0.13200
1835.00000 -0.07620 0.08500 -0.12100 0.13200
1840.00000 -0.07640 0.08530 -0.12100 0.13300
1845.00000 -0.07660 0.08540 -0.12200 0.13300
1850.00000 -0.07680 0.08560 -0.12200 0.13400
1855.00000 -0.07700 0.08580 -0.12200 0.13400
1860.00000 -0.07710 0.08600 -0.12300 0.13400
1865.00000 -0.07730 0.08620 -0.12300 0.13500
1870.00000 -0.07750 0.08640 -0.12300 0.13500
1875.00000 -0.07770 0.08670 -0.12400 0.13500
1880.00000 -0.07790 0.08690 -0.12400 0.13600
1885.00000 -0.07810 0.08710 -0.12400 0.13600
1890.00000 -0.07830 0.08730 -0.12500 0.13700
1895.00000 -0.07850 0.08750 -0.12500 0.13700
1900.00000 -0.07870 0.08780 -0.12500 0.13700
1905.00000 -0.07880 0.08800 -0.12500 0.13800
1910.00000 -0.07870 0.08830 -0.12600 0.13800
1915.00000 -0.07860 0.08850 -0.12600 0.13900
1920.00000 -0.07850 0.08870 -0.12600 0.13900
1925.00000 -0.07850 0.08890 -0.12700 0.13900
1930.00000 -0.07870 0.08870 -0.12700 0.14000
1935.00000 -0.07950 0.08820 -0.12700 0.14000
1940.00000 -0.08010 0.08820 -0.12800 0.14000
1945.00000 -0.08030 0.08850 -0.12800 0.14100
1950.00000 -0.08050 0.08900 -0.12800 0.14100
1955.00000 -0.08060 0.08960 -0.12900 0.14200
1960.00000 -0.08080 0.09020 -0.12900 0.14200
1965.00000 -0.08090 0.09050 -0.12900 0.14200
1970.00000 -0.08110 0.09070 -0.13000 0.14300
1975.00000 -0.08120 0.09090 -0.13000 0.14300
1980.00000 -0.08140 0.09110 -0.13000 0.14400
1985.00000 -0.08160 0.09130 -0.13100 0.14400
1990.00000 -0.08170 0.09150 -0.13100 0.14400
1995.00000 -0.08190 0.09170 -0.13100 0.14500
2000.00000 -0.08210 0.09190 -0.13200 0.14500
2005.00000 -0.08230 0.09210 -0.13200 0.14500
2010.00000 -0.08240 0.09220 -0.13200 0.14600
2015.00000 -0.08260 0.09240 -0.13300 0.14600
2020.00000 -0.08280 0.09260 -0.13300 0.14700
2025.00000 -0.08300 0.09280 -0.13300 0.14700
2030.00000 -0.08320 0.09300 -0.13400 0.14700
2035.00000 -0.08330 0.09320 -0.13400 0.14800
2040.00000 -0.08350 0.09340 -0.13400 0.14800
2045.00000 -0.08370 0.09370 -0.13400 0.14900
2050.00000 -0.08390 0.09390 -0.13500 0.14900
2055.00000 -0.08400 0.09410 -0.13500 0.14900
2060.00000 -0.08420 0.09430 -0.13500 0.15000
2065.00000 -0.08440 0.09450 -0.13600 0.15000
2070.00000 -0.08460 0.09470 -0.13600 0.15100
2075.00000 -0.08480 0.09490 -0.13600 0.15100
2080.00000 -0.08490 0.09510 -0.13700 0.15100
2085.00000 -0.08510 0.09530 -0.13700 0.15200
2090.00000 -0.08530 0.09560 -0.13700 0.15200
2095.00000 -0.08550 0.09580 -0.13800 0.15300
2100.00000 -0.08570 0.09600 -0.13800 0.15300
2105.00000 -0.08590 0.09620 -0.13800 0.15300
2110.00000 -0.08600 0.09640 -0.13900 0.15400
2115.00000 -0.08620 0.09660 -0.13900 0.15400
2120.00000 -0.08640 0.09680 -0.13900 0.15500
2125.00000 -0.08660 0.09700 -0.14000 0.15500
2130.00000 -0.08680 0.09730 -0.14000 0.15500
2135.00000 -0.08700 0.09750 -0.14000 0.15600
2140.00000 -0.08720 0.09770 -0.14100 0.15600
2145.00000 -0.08730 0.09790 -0.14100 0.15700
2150.00000 -0.08750 0.09820 -0.14100 0.15700
2155.00000 -0.08770 0.09840 -0.14200 0.15700
2160.00000 -0.08790 0.09860 -0.14200 0.15800
2165.00000 -0.08810 0.09880 -0.14200 0.15800
2170.00000 -0.08830 0.09900 -0.14300 0.15900
2175.00000 -0.08840 0.09920 -0.14300 0.15900
2180.00000 -0.08860 0.09950 -0.14300 0.15900
2185.00000 -0.08880 0.09970 -0.14400 0.16000
2190.00000 -0.08900 0.09990 -0.14400 0.16000
2195.00000 -0.08920 0.10000 -0.14400 0.16100
2200.00000 -0.08940 0.10000 -0.14500 0.16100
2205.00000 -0.08960 0.10100 -0.14500 0.16100
2210.00000 -0.08970 0.10100 -0.14500 0.16200
2215.00000 -0.08990 0.10100 -0.14600 0.16200
2220.00000 -0.09010 0.10100 -0.14600 0.16300
2225.00000 -0.09030 0.10100 -0.14600 0.16300
2230.00000 -0.09050 0.10200 -0.14700 0.16300
2235.00000 -0.09070 0.10200 -0.14700 0.16400
2240.00000 -0.09090 0.10200 -0.14700 0.16400
2245.00000 -0.09110 0.10200 -0.14800 0.16500
2250.00000 -0.09130 0.10200 -0.14800 0.16500
2255.00000 -0.09150 0.10300 -0.14800 0.16600
2260.00000 -0.09170 0.10300 -0.14900 0.16600
2265.00000 -0.09180 0.10300 -0.14900 0.16600
2270.00000 -0.09200 0.10300 -0.14900 0.16700
2275.00000 -0.09220 0.10400 -0.15000 0.16700
2280.00000 -0.09240 0.10400 -0.15000 0.16800
2285.00000 -0.09260 0.10400 -0.15100 0.16800
2290.00000 -0.09280 0.10400 -0.15100 0.16800
2295.00000 -0.09300 0.10500 -0.15100 0.16900
2300.00000 -0.09320 0.10500 -0.15200 0.16900
2305.00000 -0.09340 0.10500 -0.15200 0.17000
2310.00000 -0.09360 0.10500 -0.15200 0.17000
2315.00000 -0.09380 0.10500 -0.15300 0.17100
2320.00000 -0.09400 0.10600 -0.15300 0.17100
2325.00000 -0.09420 0.10600 -0.15300 0.17100
2330.00000 -0.09440 0.10600 -0.15400 0.17200
2335.00000 -0.09460 0.10600 -0.15400 0.17200
2340.00000 -0.09480 0.10700 -0.15400 0.17300
2345.00000 -0.09500 0.10700 -0.15500 0.17300
2350.00000 -0.09510 0.10700 -0.15500 0.17400
2355.00000 -0.09530 0.10700 -0.15500 0.17400
2360.00000 -0.09550 0.10700 -0.15600 0.17400
2365.00000 -0.09570 0.10800 -0.15600 0.17500
2370.00000 -0.09590 0.10800 -0.15600 0.17500
2375.00000 -0.09610 0.10800 -0.15700 0.17600
2380.00000 -0.09630 0.10800 -0.15700 0.17600
2385.00000 -0.09650 0.10900 -0.15700 0.17700
2390.00000 -0.09670 0.10900 -0.15800 0.17700
2395.00000 -0.09690 0.10900 -0.15800 0.17700
2400.00000 -0.09710 0.10900 -0.15800 0.17800
2405.00000 -0.09730 0.11000 -0.15900 0.17800
2410.00000 -0.09750 0.11000 -0.15900 0.17900
2415.00000 -0.09770 0.11000 -0.16000 0.17900
2420.00000 -0.09790 0.11000 -0.16000 0.18000
2425.00000 -0.09800 0.11000 -0.16000 0.18000
2430.00000 -0.09820 0.11100 -0.16100 0.18000
2435.00000 -0.09840 0.11100 -0.16100 0.18100
2440.00000 -0.09860 0.11100 -0.16100 0.18100
2445.00000 -0.09880 0.11100 -0.16200 0.18200
2450.00000 -0.09900 0.11200 -0.16200 0.18200
2455.00000 -0.09920 0.11200 -0.16200 0.18300
2460.00000 -0.09940 0.11200 -0.16300 0.18300
2465.00000 -0.09960 0.11200 -0.16300 0.18400
2470.00000 -0.09980 0.11300 -0.16300 0.18400
2475.00000 -0.10000 0.11300 -0.16400 0.18400
2480.00000 -0.10000 0.11300 -0.16400 0.18500
2485.00000 -0.10000 0.11300 -0.16400 0.18500
2490.00000 -0.10100 0.11400 -0.16500 0.18600
2495.00000 -0.10100 0.11400 -0.16500 0.18600
2500.00000 -0.10100 0.11400 -0.16600 0.18700
2505.00000 -0.10100 0.11400 -0.16600 0.18700
2510.00000 -0.10100 0.11400 -0.16600 0.18800
2515.00000 -0.10200 0.11500 -0.16700 0.18800
2520.00000 -0.10200 0.11500 -0.16700 0.18800
2525.00000 -0.10200 0.11500 -0.16700 0.18900
2530.00000 -0.10200 0.11500 -0.16800 0.18900
2535.00000 -0.10200 0.11600 -0.16800 0.19000
2540.00000 -0.10300 0.11600 -0.16800 0.19000
2545.00000 -0.10300 0.11600 -0.16900 0.19100
2550.00000 -0.10300 0.11600 -0.16900 0.19100
2555.00000 -0.10300 0.11700 -0.16900 0.19200
2560.00000 -0.10300 0.11700 -0.17000 0.19200
2565.00000 -0.10400 0.11700 -0.17000 0.19200
2570.00000 -0.10400 0.11700 -0.17100 0.19300
2575.00000 -0.10400 0.11800 -0.17100 0.19300
2580.00000 -0.10400 0.11800 -0.17100 0.19400
2585.00000 -0.10400 0.11800 -0.17200 0.19400
2590.00000 -0.10500 0.11800 -0.17200 0.19500
2595.00000 -0.10500 0.11900 -0.17200 0.19500
2600.00000 -0.10500 0.11900 -0.17300 0.19600
2605.00000 -0.10500 0.11900 -0.17300 0.19600
2610.00000 -0.10600 0.11900 -0.17400 0.19700
2615.00000 -0.10600 0.12000 -0.17400 0.19700
2620.00000 -0.10600 0.12000 -0.17400 0.19800
2625.00000 -0.10600 0.12000 -0.17500 0.19800
2630.00000 -0.10600 0.12000 -0.17500 0.19800
2635.00000 -0.10700 0.12000 -0.17500 0.19900
2640.00000 -0.10700 0.12100 -0.17600 0.19900
2645.00000 -0.10700 0.12100 -0.17600 0.20000
2650.00000 -0.10700 0.12100 -0.17600 0.20000
2655.00000 -0.10700 0.12100 -0.17700 0.20100
2660.00000 -0.10800 0.12200 -0.17700 0.20100
2665.00000 -0.10800 0.12200 -0.17800 0.20200
2670.00000 -0.10800 0.12200 -0.17800 0.20200
2675.00000 -0.10800 0.12200 -0.17800 0.20300
2680.00000 -0.10800 0.12300 -0.17900 0.20300
2685.00000 -0.10900 0.12300 -0.17900 0.20400
2690.00000 -0.10900 0.12300 -0.17900 0.20400
2695.00000 -0.10900 0.12300 -0.18000 0.20500
2700.00000 -0.10900 0.12400 -0.18000 0.20500
2705.00000 -0.10900 0.12400 -0.18100 0.20500
2710.00000 -0.11000 0.12400 -0.18100 0.20600
2715.00000 -0.11000 0.12400 -0.18100 0.20600
2720.00000 -0.11000 0.12500 -0.18200 0.20700
2725.00000 -0.11000 0.12500 -0.18200 0.20700
2730.00000 -0.11100 0.12500 -0.18200 0.20800
2735.00000 -0.11100 0.12500 -0.18300 0.20800
2740.00000 -0.11100 0.12600 -0.18300 0.20900
2745.00000 -0.11100 0.12600 -0.18400 0.20900
2750.00000 -0.11100 0.12600 -0.18400 0.21000
2755.00000 -0.11200 0.12600 -0.18400 0.21000
2760.00000 -0.11200 0.12700 -0.18500 0.21100
2765.00000 -0.11200 0.12700 -0.18500 0.21100
2770.00000 -0.11200 0.12700 -0.18500 0.21200
2775.00000 -0.11300 0.12700 -0.18600 0.21200
2780.00000 -0.11300 0.12800 -0.18600 0.21300
2785.00000 -0.11300 0.12800 -0.18700 0.21300
2790.00000 -0.11300 0.12800 -0.18700 0.21400
2795.00000 -0.11300 0.12800 -0.18700 0.21400
2800.00000 -0.11400 0.12900 -0.18800 0.21500
2805.00000 -0.11400 0.12900 -0.18800 0.21500
2810.00000 -0.11400 0.12900 -0.18800 0.21600
2815.00000 -0.11400 0.12900 -0.18900 0.21600
2820.00000 -0.11400 0.13000 -0.18900 0.21600
2825.00000 -0.11500 0.13000 -0.19000 0.21700
2830.00000 -0.11500 0.13000 -0.19000 0.21700
2835.00000 -0.11500 0.13100 -0.19000 0.21800
2840.00000 -0.11500 0.13100 -0.19100 0.21800
2845.00000 -0.11600 0.13100 -0.19100 0.21900
2850.00000 -0.11600 0.13100 -0.19200 0.21900
2855.00000 -0.11600 0.13200 -0.19200 0.22000
2860.00000 -0.11600 0.13200 -0.19200 0.22000
2865.00000 -0.11600 0.13200 -0.19300 0.22100
2870.00000 -0.11700 0.13200 -0.19300 0.22100
2875.00000 -0.11700 0.13300 -0.19300 0.22200
2880.00000 -0.11700 0.13300 -0.19400 0.22200
2885.00000 -0.11700 0.13300 -0.19400 0.22300
2890.00000 -0.11800 0.13300 -0.19500 0.22300
2895.00000 -0.11800 0.13400 -0.19500 0.22400
2900.00000 -0.11800 0.13400 -0.19500 0.22400
2905.00000 -0.11800 0.13400 -0.19600 0.22500
2910.00000 -0.11800 0.13400 -0.19600 0.22500
2915.00000 -0.11900 0.13500 -0.19700 0.22600
2920.00000 -0.11900 0.13500 -0.19700 0.22600
2925.00000 -0.11900 0.13500 -0.19700 0.22700
2930.00000 -0.11900 0.13600 -0.19800 0.22700
2935.00000 -0.12000 0.13600 -0.19800 0.22800
2940.00000 -0.12000 0.13600 -0.19900 0.22800
2945.00000 -0.12000 0.13600 -0.19900 0.22900
2950.00000 -0.12000 0.13700 -0.19900 0.22900
2955.00000 -0.12000 0.13700 -0.20000 0.23000
2960.00000 -0.12100 0.13700 -0.20000 0.23000
2965.00000 -0.12100 0.13700 -0.20100 0.23100
2970.00000 -0.12100 0.13800 -0.20100 0.23100
2975.00000 -0.12100 0.13800 -0.20100 0.23200
2980.00000 -0.12200 0.13800 -0.20200 0.23200
2985.00000 -0.12200 0.13800 -0.20200 0.23300
2990.00000 -0.12200 0.13900 -0.20200 0.23300
2995.00000 -0.12200 0.13900 -0.20300 0.23400
3000.00000 -0.12300 0.13900 -0.20300 0.23400
