70.00000 -0.02980 0.03230 -0.02420 0.01900
71.00000 -0.02980 0.03220 -0.02410 0.01890
72.00000 -0.02970 0.03210 -0.02400 0.01890
73.00000 -0.02960 0.03210 -0.02400 0.01880
74.00000 -0.02950 0.03200 -0.02390 0.01880
75.00000 -0.02950 0.03190 -0.02390 0.01870
76.00000 -0.02940 0.03190 -0.02390 0.01870
77.00000 -0.02930 0.03180 -0.02380 0.01860
78.00000 -0.02920 0.03170 -0.02380 0.01860
79.00000 -0.02910 0.03160 -0.02370 0.01860
80.00000 -0.02910 0.03160 -0.02370 0.01850
81.00000 -0.02900 0.03140 -0.02360 0.01850
82.00000 -0.02890 0.03130 -0.02360 0.01850
83.00000 -0.02890 0.03120 -0.02360 0.01850
84.00000 -0.02880 0.03120 -0.02350 0.01840
85.00000 -0.02870 0.03120 -0.02350 0.01840
86.00000 -0.02870 0.03110 -0.02340 0.01840
87.00000 -0.02860 0.03110 -0.02340 0.01840
88.00000 -0.02850 0.03100 -0.02340 0.01840
89.00000 -0.02850 0.03090 -0.02330 0.01840
90.00000 -0.02840 0.03080 -0.02330 0.01840
91.00000 -0.02830 0.03070 -0.02330 0.01830
92.00000 -0.02830 0.03070 -0.02320 0.01830
93.00000 -0.02820 0.03070 -0.02320 0.01830
94.00000 -0.02810 0.03060 -0.02320 0.01830
95.00000 -0.02810 0.03050 -0.02310 0.01830
96.00000 -0.02810 0.03050 -0.02310 0.01830
97.00000 -0.02800 0.03040 -0.02310 0.01830
98.00000 -0.02800 0.03030 -0.02310 0.01830
99.00000 -0.02790 0.03030 -0.02300 0.01830
100.00000 -0.02780 0.03020 -0.02300 0.01830
101.00000 -0.02780 0.03020 -0.02300 0.01830
102.00000 -0.02770 0.03010 -0.02300 0.01830
103.00000 -0.02760 0.03010 -0.02300 0.01830
104.00000 -0.02760 0.03010 -0.02290 0.01830
105.00000 -0.02760 0.03000 -0.02290 0.01830
106.00000 -0.02750 0.03000 -0.02290 0.01830
107.00000 -0.02750 0.02990 -0.02290 0.01830
108.00000 -0.02740 0.02990 -0.02290 0.01830
109.00000 -0.02740 0.02990 -0.02290 0.01830
110.00000 -0.02740 0.02980 -0.02290 0.01830
111.00000 -0.02730 0.02980 -0.02290 0.01830
112.00000 -0.02720 0.02970 -0.02290 0.01830
113.00000 -0.02720 0.02970 -0.02290 0.01830
114.00000 -0.02720 0.02960 -0.02290 0.01840
115.00000 -0.02710 0.02960 -0.02290 0.01840
116.00000 -0.02710 0.02960 -0.02290 0.01840
117.00000 -0.02700 0.02950 -0.02290 0.01840
118.00000 -0.02700 0.02950 -0.02290 0.01840
119.00000 -0.02690 0.02940 -0.02290 0.01840
120.00000 -0.02690 0.02940 -0.02290 0.01840
121.00000 -0.02680 0.02940 -0.02290 0.01840
122.00000 -0.02680 0.02930 -0.02290 0.01850
123.00000 -0.02680 0.02930 -0.02290 0.01850
124.00000 -0.02670 0.02930 -0.02290 0.01850
125.00000 -0.02670 0.02920 -0.02290 0.01850
126.00000 -0.02660 0.02920 -0.02290 0.01850
127.00000 -0.02660 0.02920 -0.02290 0.01850
128.00000 -0.02650 0.02910 -0.02290 0.01860
129.00000 -0.02650 0.02910 -0.02290 0.01860
130.00000 -0.02640 0.02900 -0.02290 0.01860
131.00000 -0.02640 0.02900 -0.02290 0.01860
132.00000 -0.02620 0.02870 -0.02290 0.01860
133.00000 -0.02650 0.02930 -0.02290 0.01870
134.00000 -0.02670 0.02920 -0.02300 0.01870
135.00000 -0.02640 0.02900 -0.02300 0.01870
136.00000 -0.02630 0.02890 -0.02300 0.01870
137.00000 -0.02630 0.02890 -0.02300 0.01870
138.00000 -0.02620 0.02880 -0.02300 0.01880
139.00000 -0.02620 0.02880 -0.02300 0.01880
140.00000 -0.02610 0.02880 -0.02300 0.01880
141.00000 -0.02610 0.02870 -0.02300 0.01880
142.00000 -0.02610 0.02870 -0.02310 0.01890
143.00000 -0.02610 0.02870 -0.02310 0.01890
144.00000 -0.02600 0.02870 -0.02310 0.01890
145.00000 -0.02600 0.02870 -0.02310 0.01890
146.00000 -0.02600 0.02860 -0.02310 0.01900
147.00000 -0.02590 0.02860 -0.02310 0.01900
148.00000 -0.02590 0.02860 -0.02320 0.01900
149.00000 -0.02590 0.02860 -0.02320 0.01910
150.00000 -0.02590 0.02850 -0.02320 0.01910
151.00000 -0.02580 0.02850 -0.02320 0.01910
152.00000 -0.02580 0.02850 -0.02320 0.01920
153.00000 -0.02580 0.02850 -0.02320 0.01920
154.00000 -0.02580 0.02850 -0.02330 0.01920
155.00000 -0.02570 0.02850 -0.02330 0.01930
156.00000 -0.02570 0.02840 -0.02330 0.01930
157.00000 -0.02570 0.02840 -0.02330 0.01930
158.00000 -0.02590 0.02830 -0.02330 0.01940
159.00000 -0.02550 0.02860 -0.02340 0.01940
160.00000 -0.02560 0.02860 -0.02340 0.01940
161.00000 -0.02560 0.02830 -0.02340 0.01950
162.00000 -0.02560 0.02830 -0.02340 0.01950
163.00000 -0.02560 0.02830 -0.02350 0.01960
164.00000 -0.02560 0.02830 -0.02350 0.01960
165.00000 -0.02550 0.02830 -0.02350 0.01960
166.00000 -0.02550 0.02830 -0.02350 0.01970
167.00000 -0.02550 0.02830 -0.02350 0.01970
168.00000 -0.02550 0.02830 -0.02360 0.01980
169.00000 -0.02550 0.02830 -0.02360 0.01980
170.00000 -0.02550 0.02830 -0.02360 0.01990
171.00000 -0.02550 0.02830 -0.02360 0.01990
172.00000 -0.02550 0.02830 -0.02370 0.01990
173.00000 -0.02540 0.02830 -0.02370 0.02000
174.00000 -0.02540 0.02830 -0.02370 0.02000
175.00000 -0.02540 0.02830 -0.02370 0.02010
176.00000 -0.02540 0.02820 -0.02380 0.02010
177.00000 -0.02540 0.02820 -0.02380 0.02020
178.00000 -0.02540 0.02820 -0.02380 0.02020
179.00000 -0.02530 0.02820 -0.02390 0.02030
180.00000 -0.02530 0.02820 -0.02390 0.02030
181.00000 -0.02530 0.02820 -0.02390 0.02040
182.00000 -0.02530 0.02820 -0.02390 0.02040
183.00000 -0.02530 0.02820 -0.02400 0.02050
184.00000 -0.02530 0.02820 -0.02400 0.02050
185.00000 -0.02530 0.02820 -0.02400 0.02060
186.00000 -0.02530 0.02820 -0.02410 0.02060
187.00000 -0.02520 0.02820 -0.02410 0.02070
188.00000 -0.02530 0.02820 -0.02410 0.02070
189.00000 -0.02520 0.02820 -0.02410 0.02080
190.00000 -0.02520 0.02820 -0.02420 0.02080
191.00000 -0.02520 0.02820 -0.02420 0.02090
192.00000 -0.02520 0.02820 -0.02420 0.02100
193.00000 -0.02520 0.02820 -0.02430 0.02100
194.00000 -0.02520 0.02820 -0.02430 0.02110
195.00000 -0.02520 0.02820 -0.02430 0.02110
196.00000 -0.02520 0.02820 -0.02440 0.02120
197.00000 -0.02520 0.02820 -0.02440 0.02120
198.00000 -0.02520 0.02820 -0.02440 0.02130
199.00000 -0.02510 0.02820 -0.02440 0.02130
200.00000 -0.02510 0.02820 -0.02450 0.02140
205.00000 -0.02510 0.02820 -0.02460 0.02170
210.00000 -0.02510 0.02820 -0.02480 0.02190
215.00000 -0.02510 0.02820 -0.02500 0.02220
220.00000 -0.02510 0.02820 -0.02520 0.02250
225.00000 -0.02500 0.02820 -0.02540 0.02280
230.00000 -0.02500 0.02820 -0.02560 0.02300
235.00000 -0.02510 0.02830 -0.02600 0.02330
240.00000 -0.02510 0.02830 -0.02600 0.02400
245.00000 -0.02510 0.02830 -0.02620 0.02390
250.00000 -0.02510 0.02840 -0.02650 0.02420
255.00000 -0.02510 0.02840 -0.02670 0.02450
260.00000 -0.02510 0.02850 -0.02690 0.02480
265.00000 -0.02520 0.02850 -0.02720 0.02510
270.00000 -0.02520 0.02860 -0.02740 0.02540
275.00000 -0.02520 0.02860 -0.02770 0.02570
280.00000 -0.02520 0.02870 -0.02790 0.02600
285.00000 -0.02530 0.02870 -0.02820 0.02630
290.00000 -0.02530 0.02880 -0.02840 0.02660
295.00000 -0.02540 0.02880 -0.02870 0.02690
300.00000 -0.02540 0.02890 -0.02890 0.02730
305.00000 -0.02540 0.02890 -0.02920 0.02750
310.00000 -0.02550 0.02900 -0.02940 0.02790
315.00000 -0.02550 0.02900 -0.02970 0.02820
320.00000 -0.02550 0.02910 -0.03000 0.02850
321.00000 -0.02550 0.02910 -0.03000 0.02860
322.00000 -0.02550 0.02910 -0.03010 0.02860
323.00000 -0.02550 0.02910 -0.03010 0.02870
324.00000 -0.02550 0.02910 -0.03020 0.02870
325.00000 -0.02550 0.02910 -0.03020 0.02880
326.00000 -0.02550 0.02910 -0.03030 0.02890
327.00000 -0.02550 0.02910 -0.03030 0.02890
328.00000 -0.02550 0.02910 -0.03040 0.02900
329.00000 -0.02550 0.02910 -0.03040 0.02910
330.00000 -0.02550 0.02910 -0.03050 0.02910
331.00000 -0.02550 0.02910 -0.03050 0.02920
332.00000 -0.02550 0.02910 -0.03060 0.02930
333.00000 -0.02550 0.02910 -0.03070 0.02930
334.00000 -0.02550 0.02900 -0.03070 0.02940
335.00000 -0.02550 0.02900 -0.03080 0.02950
336.00000 -0.02540 0.02900 -0.03080 0.02950
337.00000 -0.02540 0.02900 -0.03090 0.02960
338.00000 -0.02540 0.02900 -0.03090 0.02960
339.00000 -0.02540 0.02900 -0.03100 0.02970
340.00000 -0.02530 0.02890 -0.03100 0.02980
341.00000 -0.02530 0.02890 -0.03110 0.02980
342.00000 -0.02520 0.02880 -0.03110 0.02990
343.00000 -0.02520 0.02880 -0.03120 0.03000
344.00000 -0.02500 0.02860 -0.03120 0.03000
346.00000 -0.02460 0.02800 -0.03130 0.03020
347.00000 -0.02450 0.02790 -0.03140 0.03020
348.00000 -0.02470 0.02820 -0.03140 0.03030
349.00000 -0.02500 0.02860 -0.03150 0.03040
350.00000 -0.02550 0.02910 -0.03160 0.03040
351.00000 -0.02560 0.02920 -0.03160 0.03050
352.00000 -0.02570 0.02930 -0.03170 0.03050
353.00000 -0.02580 0.02940 -0.03170 0.03060
354.00000 -0.02590 0.02950 -0.03180 0.03070
355.00000 -0.02600 0.02960 -0.03180 0.03070
356.00000 -0.02600 0.02970 -0.03190 0.03080
357.00000 -0.02610 0.02980 -0.03190 0.03090
358.00000 -0.02620 0.02980 -0.03200 0.03090
359.00000 -0.02620 0.02990 -0.03200 0.03100
360.00000 -0.02630 0.03000 -0.03210 0.03110
361.00000 -0.02630 0.03000 -0.03210 0.03110
362.00000 -0.02640 0.03010 -0.03220 0.03120
363.00000 -0.02640 0.03010 -0.03230 0.03120
364.00000 -0.02650 0.03020 -0.03230 0.03130
365.00000 -0.02650 0.03020 -0.03240 0.03140
366.00000 -0.02660 0.03030 -0.03240 0.03140
367.00000 -0.02660 0.03040 -0.03250 0.03150
368.00000 -0.02670 0.03040 -0.03250 0.03160
369.00000 -0.02670 0.03040 -0.03260 0.03160
370.00000 -0.02680 0.03050 -0.03260 0.03170
375.00000 -0.02690 0.03070 -0.03290 0.03200
380.00000 -0.02710 0.03090 -0.03320 0.03230
385.00000 -0.02730 0.03110 -0.03350 0.03270
390.00000 -0.02750 0.03130 -0.03370 0.03300
395.00000 -0.02760 0.03150 -0.03400 0.03330
400.00000 -0.02780 0.03160 -0.03430 0.03360
405.00000 -0.02790 0.03190 -0.03450 0.03400
410.00000 -0.02810 0.03200 -0.03480 0.03430
415.00000 -0.02820 0.03220 -0.03510 0.03460
420.00000 -0.02840 0.03240 -0.03540 0.03490
425.00000 -0.02860 0.03250 -0.03570 0.03520
430.00000 -0.02870 0.03270 -0.03590 0.03560
435.00000 -0.02890 0.03290 -0.03620 0.03590
440.00000 -0.02900 0.03300 -0.03650 0.03620
445.00000 -0.02910 0.03320 -0.03680 0.03650
450.00000 -0.02930 0.03340 -0.03700 0.03680
455.00000 -0.02940 0.03360 -0.03730 0.03710
460.00000 -0.02960 0.03370 -0.03760 0.03750
465.00000 -0.02980 0.03390 -0.03790 0.03780
470.00000 -0.02990 0.03410 -0.03820 0.03810
475.00000 -0.03010 0.03430 -0.03840 0.03840
480.00000 -0.03020 0.03440 -0.03870 0.03870
485.00000 -0.03040 0.03460 -0.03900 0.03910
490.00000 -0.03050 0.03480 -0.03930 0.03940
495.00000 -0.03070 0.03490 -0.03950 0.03970
500.00000 -0.03080 0.03510 -0.03980 0.04000
505.00000 -0.03100 0.03530 -0.04010 0.04030
510.00000 -0.03120 0.03540 -0.04040 0.04060
515.00000 -0.03130 0.03560 -0.04070 0.04100
520.00000 -0.03140 0.03580 -0.04090 0.04130
525.00000 -0.03160 0.03600 -0.04120 0.04160
530.00000 -0.03180 0.03610 -0.04150 0.04190
535.00000 -0.03190 0.03630 -0.04180 0.04220
540.00000 -0.03210 0.03640 -0.04200 0.04260
545.00000 -0.03220 0.03660 -0.04230 0.04290
550.00000 -0.03240 0.03680 -0.04260 0.04320
555.00000 -0.03250 0.03700 -0.04290 0.04350
560.00000 -0.03270 0.03710 -0.04310 0.04380
565.00000 -0.03290 0.03730 -0.04340 0.04410
570.00000 -0.03300 0.03750 -0.04370 0.04450
575.00000 -0.03320 0.03760 -0.04400 0.04480
580.00000 -0.03340 0.03780 -0.04430 0.04510
585.00000 -0.03350 0.03800 -0.04450 0.04540
590.00000 -0.03370 0.03820 -0.04480 0.04570
595.00000 -0.03380 0.03840 -0.04510 0.04600
600.00000 -0.03400 0.03850 -0.04530 0.04640
605.00000 -0.03410 0.03870 -0.04560 0.04670
610.00000 -0.03430 0.03890 -0.04590 0.04700
615.00000 -0.03450 0.03900 -0.04620 0.04730
620.00000 -0.03460 0.03920 -0.04640 0.04760
625.00000 -0.03480 0.03940 -0.04670 0.04790
630.00000 -0.03500 0.03950 -0.04700 0.04830
635.00000 -0.03510 0.03970 -0.04730 0.04860
640.00000 -0.03520 0.03990 -0.04750 0.04890
645.00000 -0.03540 0.04010 -0.04780 0.04920
650.00000 -0.03560 0.04030 -0.04810 0.04950
655.00000 -0.03570 0.04050 -0.04830 0.04980
660.00000 -0.03590 0.04060 -0.04860 0.05010
665.00000 -0.03610 0.04080 -0.04890 0.05040
670.00000 -0.03620 0.04100 -0.04920 0.05070
675.00000 -0.03640 0.04110 -0.04940 0.05110
680.00000 -0.03650 0.04130 -0.04970 0.05140
685.00000 -0.03670 0.04150 -0.05000 0.05170
690.00000 -0.03690 0.04160 -0.05030 0.05200
695.00000 -0.03700 0.04180 -0.05050 0.05230
700.00000 -0.03720 0.04200 -0.05080 0.05260
705.00000 -0.03730 0.04220 -0.05110 0.05290
710.00000 -0.03750 0.04240 -0.05140 0.05320
715.00000 -0.03760 0.04260 -0.05160 0.05350
720.00000 -0.03780 0.04270 -0.05190 0.05390
725.00000 -0.03790 0.04290 -0.05220 0.05420
730.00000 -0.03810 0.04310 -0.05240 0.05450
735.00000 -0.03830 0.04320 -0.05270 0.05480
740.00000 -0.03840 0.04340 -0.05300 0.05510
745.00000 -0.03860 0.04360 -0.05330 0.05540
750.00000 -0.03870 0.04370 -0.05350 0.05570
755.00000 -0.03890 0.04390 -0.05380 0.05600
760.00000 -0.03900 0.04410 -0.05410 0.05630
765.00000 -0.03920 0.04420 -0.05430 0.05660
770.00000 -0.03930 0.04440 -0.05460 0.05690
775.00000 -0.03950 0.04460 -0.05490 0.05720
780.00000 -0.03960 0.04480 -0.05520 0.05750
785.00000 -0.03980 0.04490 -0.05540 0.05780
790.00000 -0.03990 0.04510 -0.05570 0.05810
795.00000 -0.04010 0.04530 -0.05600 0.05840
800.00000 -0.04030 0.04550 -0.05620 0.05870
805.00000 -0.04040 0.04560 -0.05650 0.05900
810.00000 -0.04060 0.04580 -0.05680 0.05930
815.00000 -0.04070 0.04600 -0.05710 0.05960
820.00000 -0.04090 0.04620 -0.05730 0.05990
825.00000 -0.04100 0.04630 -0.05760 0.06020
830.00000 -0.04120 0.04650 -0.05790 0.06050
835.00000 -0.04130 0.04670 -0.05820 0.06080
840.00000 -0.04150 0.04680 -0.05840 0.06110
845.00000 -0.04170 0.04700 -0.05870 0.06140
850.00000 -0.04180 0.04720 -0.05900 0.06180
855.00000 -0.04190 0.04740 -0.05920 0.06210
860.00000 -0.04210 0.04750 -0.05950 0.06240
865.00000 -0.04230 0.04770 -0.05980 0.06270
870.00000 -0.04240 0.04790 -0.06000 0.06300
875.00000 -0.04260 0.04810 -0.06030 0.06330
880.00000 -0.04270 0.04820 -0.06060 0.06360
885.00000 -0.04290 0.04840 -0.06090 0.06390
890.00000 -0.04300 0.04860 -0.06110 0.06420
895.00000 -0.04320 0.04870 -0.06140 0.06450
900.00000 -0.04340 0.04890 -0.06170 0.06480
905.00000 -0.04350 0.04910 -0.06190 0.06510
910.00000 -0.04370 0.04930 -0.06220 0.06540
915.00000 -0.04380 0.04940 -0.06250 0.06570
920.00000 -0.04400 0.04960 -0.06270 0.06600
925.00000 -0.04420 0.04980 -0.06300 0.06630
930.00000 -0.04430 0.04990 -0.06330 0.06660
935.00000 -0.04450 0.05010 -0.06360 0.06690
940.00000 -0.04460 0.05030 -0.06380 0.06720
945.00000 -0.04480 0.05050 -0.06410 0.06750
950.00000 -0.04490 0.05060 -0.06440 0.06780
955.00000 -0.04510 0.05080 -0.06460 0.06810
960.00000 -0.04520 0.05100 -0.06490 0.06840
965.00000 -0.04540 0.05110 -0.06520 0.06870
970.00000 -0.04560 0.05130 -0.06540 0.06900
975.00000 -0.04570 0.05150 -0.06570 0.06930
980.00000 -0.04590 0.05160 -0.06600 0.06960
985.00000 -0.04600 0.05180 -0.06620 0.06990
990.00000 -0.04620 0.05200 -0.06650 0.07020
995.00000 -0.04630 0.05220 -0.06680 0.07050
1000.00000 -0.04650 0.05230 -0.06710 0.07080
1005.00000 -0.04670 0.05260 -0.06730 0.07110
1010.00000 -0.04680 0.05270 -0.06760 0.07140
1015.00000 -0.04700 0.05290 -0.06790 0.07170
1020.00000 -0.04710 0.05310 -0.06810 0.07200
1025.00000 -0.04730 0.05320 -0.06840 0.07230
1030.00000 -0.04750 0.05340 -0.06870 0.07260
1035.00000 -0.04760 0.05360 -0.06890 0.07290
1040.00000 -0.04780 0.05370 -0.06920 0.07320
1045.00000 -0.04790 0.05390 -0.06950 0.07350
1050.00000 -0.04810 0.05410 -0.06970 0.07380
1055.00000 -0.04830 0.05430 -0.07000 0.07410
1060.00000 -0.04840 0.05440 -0.07030 0.07440
1065.00000 -0.04850 0.05460 -0.07050 0.07470
1070.00000 -0.04870 0.05470 -0.07080 0.07500
1075.00000 -0.04890 0.05490 -0.07110 0.07530
1080.00000 -0.04900 0.05510 -0.07130 0.07560
1085.00000 -0.04920 0.05520 -0.07160 0.07590
1090.00000 -0.04930 0.05540 -0.07190 0.07620
1095.00000 -0.04950 0.05560 -0.07210 0.07650
1100.00000 -0.04960 0.05580 -0.07240 0.07680
1105.00000 -0.04980 0.05590 -0.07270 0.07710
1110.00000 -0.05000 0.05610 -0.07300 0.07740
1115.00000 -0.05010 0.05630 -0.07320 0.07770
1120.00000 -0.05030 0.05650 -0.07350 0.07800
1125.00000 -0.05040 0.05660 -0.07380 0.07830
1130.00000 -0.05060 0.05680 -0.07410 0.07860
1135.00000 -0.05070 0.05700 -0.07430 0.07890
1140.00000 -0.05090 0.05710 -0.07460 0.07920
1145.00000 -0.05110 0.05730 -0.07480 0.07950
1150.00000 -0.05120 0.05750 -0.07510 0.07980
1155.00000 -0.05140 0.05760 -0.07540 0.08010
1160.00000 -0.05150 0.05780 -0.07560 0.08040
1165.00000 -0.05170 0.05800 -0.07590 0.08070
1170.00000 -0.05190 0.05810 -0.07620 0.08100
1175.00000 -0.05200 0.05830 -0.07640 0.08130
1180.00000 -0.05220 0.05850 -0.07670 0.08160
1185.00000 -0.05230 0.05860 -0.07700 0.08190
1190.00000 -0.05250 0.05880 -0.07720 0.08220
1195.00000 -0.05260 0.05900 -0.07750 0.08250
1200.00000 -0.05280 0.05910 -0.07780 0.08280
1205.00000 -0.05300 0.05930 -0.07800 0.08310
1210.00000 -0.05310 0.05950 -0.07830 0.08340
1215.00000 -0.05330 0.05960 -0.07860 0.08370
1220.00000 -0.05340 0.05980 -0.07890 0.08400
1225.00000 -0.05360 0.06000 -0.07910 0.08430
1230.00000 -0.05370 0.06010 -0.07940 0.08460
1235.00000 -0.05390 0.06030 -0.07970 0.08490
1240.00000 -0.05410 0.06050 -0.07990 0.08520
1245.00000 -0.05420 0.06060 -0.08020 0.08550
1250.00000 -0.05440 0.06080 -0.08050 0.08580
1255.00000 -0.05450 0.06100 -0.08070 0.08610
1260.00000 -0.05470 0.06110 -0.08100 0.08640
1265.00000 -0.05480 0.06130 -0.08130 0.08670
1270.00000 -0.05500 0.06150 -0.08160 0.08700
1275.00000 -0.05520 0.06160 -0.08180 0.08730
1280.00000 -0.05530 0.06180 -0.08210 0.08760
1285.00000 -0.05550 0.06200 -0.08230 0.08790
1290.00000 -0.05560 0.06210 -0.08260 0.08820
1295.00000 -0.05580 0.06230 -0.08290 0.08850
1300.00000 -0.05600 0.06250 -0.08320 0.08880
1305.00000 -0.05610 0.06260 -0.08340 0.08910
1310.00000 -0.05630 0.06280 -0.08370 0.08940
1315.00000 -0.05640 0.06300 -0.08400 0.08970
1320.00000 -0.05660 0.06310 -0.08420 0.09000
1325.00000 -0.05670 0.06330 -0.08450 0.09030
1330.00000 -0.05690 0.06350 -0.08480 0.09060
1335.00000 -0.05710 0.06360 -0.08500 0.09090
1340.00000 -0.05720 0.06380 -0.08530 0.09120
1345.00000 -0.05740 0.06400 -0.08560 0.09150
1350.00000 -0.05750 0.06410 -0.08580 0.09180
1355.00000 -0.05770 0.06430 -0.08610 0.09210
1360.00000 -0.05780 0.06450 -0.08640 0.09240
1365.00000 -0.05800 0.06460 -0.08670 0.09270
1370.00000 -0.05820 0.06480 -0.08690 0.09300
1375.00000 -0.05830 0.06500 -0.08720 0.09330
1380.00000 -0.05850 0.06510 -0.08750 0.09360
1385.00000 -0.05860 0.06530 -0.08770 0.09390
1390.00000 -0.05880 0.06550 -0.08800 0.09420
1395.00000 -0.05900 0.06560 -0.08830 0.09450
1400.00000 -0.05910 0.06580 -0.08860 0.09480
1405.00000 -0.05930 0.06600 -0.08880 0.09510
1410.00000 -0.05940 0.06610 -0.08910 0.09540
1415.00000 -0.05960 0.06630 -0.08940 0.09570
1420.00000 -0.05970 0.06650 -0.08960 0.09600
1425.00000 -0.05990 0.06660 -0.08990 0.09630
1430.00000 -0.06010 0.06680 -0.09020 0.09660
1435.00000 -0.06020 0.06700 -0.09050 0.09690
1440.00000 -0.06040 0.06710 -0.09070 0.09720
1445.00000 -0.06050 0.06730 -0.09100 0.09750
1450.00000 -0.06070 0.06750 -0.09130 0.09780
1455.00000 -0.06080 0.06760 -0.09160 0.09810
1460.00000 -0.06100 0.06780 -0.09180 0.09840
1465.00000 -0.06120 0.06800 -0.09210 0.09880
1470.00000 -0.06130 0.06820 -0.09240 0.09910
1475.00000 -0.06150 0.06830 -0.09260 0.09940
1480.00000 -0.06160 0.06850 -0.09290 0.09970
1485.00000 -0.06180 0.06870 -0.09320 0.10000
1490.00000 -0.06200 0.06880 -0.09350 0.10000
1495.00000 -0.06210 0.06900 -0.09370 0.10100
1500.00000 -0.06230 0.06920 -0.09400 0.10100
1505.00000 -0.06240 0.06940 -0.09430 0.10100
1510.00000 -0.06260 0.06950 -0.09460 0.10100
1515.00000 -0.06280 0.06970 -0.09480 0.10200
1520.00000 -0.06290 0.06990 -0.09510 0.10200
1525.00000 -0.06310 0.07010 -0.09540 0.10200
1530.00000 -0.06330 0.07030 -0.09570 0.10300
1535.00000 -0.06340 0.07040 -0.09590 0.10300
1540.00000 -0.06350 0.07060 -0.09620 0.10300
1545.00000 -0.06370 0.07080 -0.09650 0.10400
1550.00000 -0.06390 0.07100 -0.09680 0.10400
1555.00000 -0.06400 0.07110 -0.09700 0.10400
1560.00000 -0.06410 0.07130 -0.09730 0.10500
1565.00000 -0.06430 0.07150 -0.09760 0.10500
1570.00000 -0.06450 0.07160 -0.09790 0.10500
1575.00000 -0.06460 0.07180 -0.09810 0.10600
1580.00000 -0.06480 0.07200 -0.09840 0.10600
1585.00000 -0.06490 0.07220 -0.09870 0.10600
1590.00000 -0.06510 0.07230 -0.09890 0.10700
1595.00000 -0.06530 0.07250 -0.09920 0.10700
1600.00000 -0.06540 0.07270 -0.09950 0.10700
1605.00000 -0.06560 0.07290 -0.09980 0.10700
1610.00000 -0.06570 0.07310 -0.10000 0.10800
1615.00000 -0.06590 0.07320 -0.10000 0.10800
1620.00000 -0.06600 0.07340 -0.10100 0.10800
1625.00000 -0.06620 0.07360 -0.10100 0.10900
1630.00000 -0.06640 0.07380 -0.10100 0.10900
1635.00000 -0.06650 0.07390 -0.10100 0.10900
1640.00000 -0.06670 0.07410 -0.10200 0.11000
1645.00000 -0.06680 0.07430 -0.10200 0.11000
1650.00000 -0.06700 0.07450 -0.10200 0.11000
1655.00000 -0.06720 0.07460 -0.10300 0.11100
1660.00000 -0.06730 0.07480 -0.10300 0.11100
1665.00000 -0.06750 0.07500 -0.10300 0.11100
1670.00000 -0.06760 0.07520 -0.10300 0.11200
1675.00000 -0.06780 0.07540 -0.10400 0.11200
1680.00000 -0.06790 0.07560 -0.10400 0.11200
1685.00000 -0.06810 0.07570 -0.10400 0.11300
1690.00000 -0.06830 0.07590 -0.10400 0.11300
1695.00000 -0.06840 0.07610 -0.10500 0.11300
1700.00000 -0.06860 0.07630 -0.10500 0.11400
1705.00000 -0.06880 0.07650 -0.10500 0.11400
1710.00000 -0.06890 0.07670 -0.10600 0.11400
1715.00000 -0.06910 0.07680 -0.10600 0.11500
1720.00000 -0.06920 0.07700 -0.10600 0.11500
1725.00000 -0.06940 0.07720 -0.10600 0.11500
1730.00000 -0.06950 0.07740 -0.10700 0.11600
1735.00000 -0.06970 0.07760 -0.10700 0.11600
1740.00000 -0.06990 0.07770 -0.10700 0.11600
1745.00000 -0.07000 0.07790 -0.10800 0.11700
1750.00000 -0.07020 0.07810 -0.10800 0.11700
1755.00000 -0.07040 0.07830 -0.10800 0.11700
1760.00000 -0.07050 0.07850 -0.10800 0.11800
1765.00000 -0.07070 0.07870 -0.10900 0.11800
1770.00000 -0.07080 0.07890 -0.10900 0.11800
1775.00000 -0.07100 0.07900 -0.10900 0.11900
1780.00000 -0.07120 0.07920 -0.11000 0.11900
1785.00000 -0.07130 0.07940 -0.11000 0.11900
1790.00000 -0.07150 0.07960 -0.11000 0.12000
1795.00000 -0.07160 0.07980 -0.11000 0.12000
1800.00000 -0.07180 0.07990 -0.11100 0.12000
1805.00000 -0.07200 0.08010 -0.11100 0.12100
1810.00000 -0.07210 0.08030 -0.11100 0.12100
1815.00000 -0.07230 0.08050 -0.11200 0.12100
1820.00000 -0.07250 0.08070 -0.11200 0.12200
1825.00000 -0.07260 0.08090 -0.11200 0.12200
1830.00000 -0.07280 0.08110 -0.11200 0.12200
1835.00000 -0.07290 0.08130 -0.11300 0.12300
1840.00000 -0.07310 0.08140 -0.11300 0.12300
1845.00000 -0.07320 0.08160 -0.11300 0.12300
1850.00000 -0.07340 0.08180 -0.11400 0.12400
1855.00000 -0.07360 0.08200 -0.11400 0.12400
1860.00000 -0.07380 0.08220 -0.11400 0.12400
1865.00000 -0.07390 0.08240 -0.11400 0.12500
1870.00000 -0.07410 0.08260 -0.11500 0.12500
1875.00000 -0.07420 0.08280 -0.11500 0.12500
1880.00000 -0.07440 0.08290 -0.11500 0.12600
1885.00000 -0.07460 0.08310 -0.11600 0.12600
1890.00000 -0.07470 0.08330 -0.11600 0.12600
1895.00000 -0.07490 0.08350 -0.11600 0.12700
1900.00000 -0.07500 0.08370 -0.11600 0.12700
1905.00000 -0.07520 0.08390 -0.11700 0.12700
1910.00000 -0.07540 0.08410 -0.11700 0.12800
1915.00000 -0.07550 0.08420 -0.11700 0.12800
1920.00000 -0.07570 0.08440 -0.11800 0.12800
1925.00000 -0.07590 0.08460 -0.11800 0.12900
1930.00000 -0.07600 0.08480 -0.11800 0.12900
1935.00000 -0.07620 0.08500 -0.11800 0.12900
1940.00000 -0.07640 0.08520 -0.11900 0.13000
1945.00000 -0.07660 0.08540 -0.11900 0.13000
1950.00000 -0.07670 0.08560 -0.11900 0.13000
1955.00000 -0.07690 0.08580 -0.12000 0.13100
1960.00000 -0.07710 0.08600 -0.12000 0.13100
1965.00000 -0.07720 0.08620 -0.12000 0.13100
1970.00000 -0.07740 0.08640 -0.12000 0.13200
1975.00000 -0.07760 0.08660 -0.12100 0.13200
1980.00000 -0.07770 0.08680 -0.12100 0.13200
1985.00000 -0.07790 0.08700 -0.12100 0.13300
1990.00000 -0.07820 0.08720 -0.12200 0.13300
1995.00000 -0.07830 0.08740 -0.12200 0.13300
2000.00000 -0.07850 0.08760 -0.12200 0.13400
2005.00000 -0.07860 0.08780 -0.12200 0.13400
2010.00000 -0.07850 0.08800 -0.12300 0.13400
2015.00000 -0.07850 0.08830 -0.12300 0.13500
2020.00000 -0.07840 0.08850 -0.12300 0.13500
2025.00000 -0.07830 0.08870 -0.12400 0.13600
2030.00000 -0.07840 0.08870 -0.12400 0.13600
2035.00000 -0.07910 0.08820 -0.12400 0.13600
2040.00000 -0.07970 0.08800 -0.12500 0.13700
2045.00000 -0.08000 0.08830 -0.12500 0.13700
2050.00000 -0.08020 0.08870 -0.12500 0.13700
2055.00000 -0.08030 0.08920 -0.12500 0.13800
2060.00000 -0.08040 0.08970 -0.12600 0.13800
2065.00000 -0.08060 0.09010 -0.12600 0.13800
2070.00000 -0.08070 0.09040 -0.12600 0.13900
2075.00000 -0.08090 0.09060 -0.12700 0.13900
2080.00000 -0.08100 0.09070 -0.12700 0.13900
2085.00000 -0.08120 0.09090 -0.12700 0.14000
2090.00000 -0.08140 0.09110 -0.12800 0.14000
2095.00000 -0.08160 0.09120 -0.12800 0.14000
2100.00000 -0.08170 0.09140 -0.12800 0.14100
2105.00000 -0.08190 0.09160 -0.12800 0.14100
2110.00000 -0.08200 0.09180 -0.12900 0.14200
2115.00000 -0.08220 0.09200 -0.12900 0.14200
2120.00000 -0.08240 0.09220 -0.12900 0.14200
2125.00000 -0.08260 0.09240 -0.13000 0.14300
2130.00000 -0.08270 0.09260 -0.13000 0.14300
2135.00000 -0.08290 0.09280 -0.13000 0.14300
2140.00000 -0.08300 0.09300 -0.13000 0.14400
2145.00000 -0.08320 0.09320 -0.13100 0.14400
2150.00000 -0.08340 0.09340 -0.13100 0.14400
2155.00000 -0.08350 0.09360 -0.13100 0.14500
2160.00000 -0.08370 0.09380 -0.13200 0.14500
2165.00000 -0.08390 0.09390 -0.13200 0.14500
2170.00000 -0.08400 0.09410 -0.13200 0.14600
2175.00000 -0.08420 0.09430 -0.13300 0.14600
2180.00000 -0.08440 0.09450 -0.13300 0.14700
2185.00000 -0.08460 0.09470 -0.13300 0.14700
2190.00000 -0.08470 0.09490 -0.13300 0.14700
2195.00000 -0.08490 0.09510 -0.13400 0.14800
2200.00000 -0.08510 0.09530 -0.13400 0.14800
2205.00000 -0.08520 0.09550 -0.13400 0.14800
2210.00000 -0.08540 0.09570 -0.13500 0.14900
2215.00000 -0.08560 0.09590 -0.13500 0.14900
2220.00000 -0.08570 0.09610 -0.13500 0.14900
2225.00000 -0.08590 0.09630 -0.13600 0.15000
2230.00000 -0.08610 0.09650 -0.13600 0.15000
2235.00000 -0.08630 0.09670 -0.13600 0.15100
2240.00000 -0.08640 0.09690 -0.13700 0.15100
2245.00000 -0.08660 0.09710 -0.13700 0.15100
2250.00000 -0.08680 0.09730 -0.13700 0.15200
2255.00000 -0.08700 0.09750 -0.13700 0.15200
2260.00000 -0.08710 0.09770 -0.13800 0.15200
2265.00000 -0.08730 0.09790 -0.13800 0.15300
2270.00000 -0.08750 0.09810 -0.13800 0.15300
2275.00000 -0.08770 0.09830 -0.13900 0.15400
2280.00000 -0.08780 0.09850 -0.13900 0.15400
2285.00000 -0.08800 0.09870 -0.13900 0.15400
2290.00000 -0.08820 0.09890 -0.14000 0.15500
2295.00000 -0.08840 0.09910 -0.14000 0.15500
2300.00000 -0.08850 0.09940 -0.14000 0.15500
2305.00000 -0.08870 0.09960 -0.14000 0.15600
2310.00000 -0.08890 0.09980 -0.14100 0.15600
2315.00000 -0.08910 0.10000 -0.14100 0.15700
2320.00000 -0.08920 0.10000 -0.14100 0.15700
2325.00000 -0.08940 0.10000 -0.14200 0.15700
2330.00000 -0.08960 0.10100 -0.14200 0.15800
2335.00000 -0.08980 0.10100 -0.14200 0.15800
2340.00000 -0.08990 0.10100 -0.14300 0.15800
2345.00000 -0.09010 0.10100 -0.14300 0.15900
2350.00000 -0.09030 0.10100 -0.14300 0.15900
2355.00000 -0.09050 0.10200 -0.14400 0.16000
2360.00000 -0.09060 0.10200 -0.14400 0.16000
2365.00000 -0.09080 0.10200 -0.14400 0.16000
2370.00000 -0.09100 0.10200 -0.14500 0.16100
2375.00000 -0.09120 0.10200 -0.14500 0.16100
2380.00000 -0.09130 0.10300 -0.14500 0.16100
2385.00000 -0.09150 0.10300 -0.14500 0.16200
2390.00000 -0.09170 0.10300 -0.14600 0.16200
2395.00000 -0.09190 0.10300 -0.14600 0.16300
2400.00000 -0.09210 0.10300 -0.14600 0.16300
2405.00000 -0.09230 0.10400 -0.14700 0.16300
2410.00000 -0.09240 0.10400 -0.14700 0.16400
2415.00000 -0.09260 0.10400 -0.14700 0.16400
2420.00000 -0.09280 0.10400 -0.14800 0.16400
2425.00000 -0.09300 0.10500 -0.14800 0.16500
2430.00000 -0.09320 0.10500 -0.14800 0.16500
2435.00000 -0.09340 0.10500 -0.14900 0.16600
2440.00000 -0.09350 0.10500 -0.14900 0.16600
2445.00000 -0.09370 0.10500 -0.14900 0.16600
2450.00000 -0.09390 0.10600 -0.15000 0.16700
2455.00000 -0.09410 0.10600 -0.15000 0.16700
2460.00000 -0.09430 0.10600 -0.15000 0.16800
2465.00000 -0.09450 0.10600 -0.15000 0.16800
2470.00000 -0.09460 0.10600 -0.15100 0.16800
2475.00000 -0.09480 0.10700 -0.15100 0.16900
2480.00000 -0.09500 0.10700 -0.15100 0.16900
2485.00000 -0.09520 0.10700 -0.15200 0.17000
2490.00000 -0.09540 0.10700 -0.15200 0.17000
2495.00000 -0.09560 0.10800 -0.15200 0.17000
2500.00000 -0.09570 0.10800 -0.15300 0.17100
2505.00000 -0.09590 0.10800 -0.15300 0.17100
2510.00000 -0.09610 0.10800 -0.15300 0.17100
2515.00000 -0.09630 0.10800 -0.15400 0.17200
2520.00000 -0.09650 0.10900 -0.15400 0.17200
2525.00000 -0.09670 0.10900 -0.15400 0.17300
2530.00000 -0.09690 0.10900 -0.15500 0.17300
2535.00000 -0.09700 0.10900 -0.15500 0.17300
2540.00000 -0.09720 0.10900 -0.15500 0.17400
2545.00000 -0.09740 0.11000 -0.15600 0.17400
2550.00000 -0.09760 0.11000 -0.15600 0.17500
2555.00000 -0.09780 0.11000 -0.15600 0.17500
2560.00000 -0.09800 0.11000 -0.15700 0.17500
2565.00000 -0.09810 0.11100 -0.15700 0.17600
2570.00000 -0.09830 0.11100 -0.15700 0.17600
2575.00000 -0.09850 0.11100 -0.15800 0.17700
2580.00000 -0.09870 0.11100 -0.15800 0.17700
2585.00000 -0.09890 0.11100 -0.15800 0.17700
2590.00000 -0.09910 0.11200 -0.15900 0.17800
2595.00000 -0.09920 0.11200 -0.15900 0.17800
2600.00000 -0.09940 0.11200 -0.15900 0.17900
2605.00000 -0.09960 0.11200 -0.16000 0.17900
2610.00000 -0.09980 0.11300 -0.16000 0.17900
2615.00000 -0.10000 0.11300 -0.16000 0.18000
2620.00000 -0.10000 0.11300 -0.16000 0.18000
2625.00000 -0.10000 0.11300 -0.16100 0.18100
2630.00000 -0.10100 0.11300 -0.16100 0.18100
2635.00000 -0.10100 0.11400 -0.16100 0.18200
2640.00000 -0.10100 0.11400 -0.16200 0.18200
2645.00000 -0.10100 0.11400 -0.16200 0.18200
2650.00000 -0.10100 0.11400 -0.16200 0.18300
2655.00000 -0.10200 0.11500 -0.16300 0.18300
2660.00000 -0.10200 0.11500 -0.16300 0.18400
2665.00000 -0.10200 0.11500 -0.16300 0.18400
2670.00000 -0.10200 0.11500 -0.16400 0.18400
2675.00000 -0.10200 0.11500 -0.16400 0.18500
2680.00000 -0.10200 0.11600 -0.16400 0.18500
2685.00000 -0.10300 0.11600 -0.16500 0.18600
2690.00000 -0.10300 0.11600 -0.16500 0.18600
2695.00000 -0.10300 0.11600 -0.16500 0.18600
2700.00000 -0.10300 0.11700 -0.16600 0.18700
2705.00000 -0.10300 0.11700 -0.16600 0.18700
2710.00000 -0.10400 0.11700 -0.16600 0.18800
2715.00000 -0.10400 0.11700 -0.16700 0.18800
2720.00000 -0.10400 0.11700 -0.16700 0.18900
2725.00000 -0.10400 0.11800 -0.16700 0.18900
2730.00000 -0.10400 0.11800 -0.16800 0.18900
2735.00000 -0.10500 0.11800 -0.16800 0.19000
2740.00000 -0.10500 0.11800 -0.16800 0.19000
2745.00000 -0.10500 0.11900 -0.16900 0.19100
2750.00000 -0.10500 0.11900 -0.16900 0.19100
2755.00000 -0.10500 0.11900 -0.16900 0.19100
2760.00000 -0.10600 0.11900 -0.17000 0.19200
2765.00000 -0.10600 0.11900 -0.17000 0.19200
2770.00000 -0.10600 0.12000 -0.17000 0.19300
2775.00000 -0.10600 0.12000 -0.17100 0.19300
2780.00000 -0.10600 0.12000 -0.17100 0.19400
2785.00000 -0.10700 0.12000 -0.17100 0.19400
2790.00000 -0.10700 0.12100 -0.17200 0.19400
2795.00000 -0.10700 0.12100 -0.17200 0.19500
2800.00000 -0.10700 0.12100 -0.17200 0.19500
2805.00000 -0.10700 0.12100 -0.17300 0.19600
2810.00000 -0.10700 0.12200 -0.17300 0.19600
2815.00000 -0.10800 0.12200 -0.17300 0.19700
2820.00000 -0.10800 0.12200 -0.17400 0.19700
2825.00000 -0.10800 0.12200 -0.17400 0.19700
2830.00000 -0.10800 0.12200 -0.17500 0.19800
2835.00000 -0.10800 0.12300 -0.17500 0.19800
2840.00000 -0.10900 0.12300 -0.17500 0.19900
2845.00000 -0.10900 0.12300 -0.17600 0.19900
2850.00000 -0.10900 0.12300 -0.17600 0.20000
2855.00000 -0.10900 0.12400 -0.17600 0.20000
2860.00000 -0.10900 0.12400 -0.17700 0.20000
2865.00000 -0.11000 0.12400 -0.17700 0.20100
2870.00000 -0.11000 0.12400 -0.17700 0.20100
2875.00000 -0.11000 0.12500 -0.17800 0.20200
2880.00000 -0.11000 0.12500 -0.17800 0.20200
2885.00000 -0.11000 0.12500 -0.17800 0.20300
2890.00000 -0.11100 0.12500 -0.17900 0.20300
2895.00000 -0.11100 0.12600 -0.17900 0.20300
2900.00000 -0.11100 0.12600 -0.17900 0.20400
2905.00000 -0.11100 0.12600 -0.18000 0.20400
2910.00000 -0.11100 0.12600 -0.18000 0.20500
2915.00000 -0.11200 0.12600 -0.18000 0.20500
2920.00000 -0.11200 0.12700 -0.18100 0.20600
2925.00000 -0.11200 0.12700 -0.18100 0.20600
2930.00000 -0.11200 0.12700 -0.18100 0.20600
2935.00000 -0.11200 0.12700 -0.18200 0.20700
2940.00000 -0.11300 0.12800 -0.18200 0.20700
2945.00000 -0.11300 0.12800 -0.18200 0.20800
2950.00000 -0.11300 0.12800 -0.18300 0.20800
2955.00000 -0.11300 0.12800 -0.18300 0.20900
2960.00000 -0.11400 0.12900 -0.18300 0.20900
2965.00000 -0.11400 0.12900 -0.18400 0.21000
2970.00000 -0.11400 0.12900 -0.18400 0.21000
2975.00000 -0.11400 0.12900 -0.18500 0.21000
2980.00000 -0.11400 0.13000 -0.18500 0.21100
2985.00000 -0.11500 0.13000 -0.18500 0.21100
2990.00000 -0.11500 0.13000 -0.18600 0.21200
2995.00000 -0.11500 0.13000 -0.18600 0.21200
3000.00000 -0.11500 0.13000 -0.18600 0.21300
